{
  "project_info": {
    "project_number": "381052790771",
    "project_id": "android-final-ug",
    "storage_bucket": "android-final-ug.appspot.com"
  },
  "client": [
    {
      "client_info": {
        "mobilesdk_app_id": "1:381052790771:android:be82f380285bf3b6771486",
        "android_client_info": {
          "package_name": "com.example.finalexam"
        }
      },
      "oauth_client": [
        {
          "client_id": "381052790771-jqoqhbsvlvoufs529u8t2d2ds5e8r1eb.apps.googleusercontent.com",
          "client_type": 3
        }
      ],
      "api_key": [
        {
          "current_key": "AIzaSyCv-5iT17q3STbrPAmBDu50DABKkbrSLIE"
        }
      ],
      "services": {
        "appinvite_service": {
          "other_platform_oauth_client": [
            {
              "client_id": "381052790771-jqoqhbsvlvoufs529u8t2d2ds5e8r1eb.apps.googleusercontent.com",
              "client_type": 3
            }
          ]
        }
      }
    }
  ],
  "configuration_version": "1"
}